Visualizations in R
…
or always add it when you read the file in.

#upload the spatial file using geojson and specifying to R that it's a shapefile
data.vis.sp<- geojsonio::geojson_read("country_alcohol.geojson",
  what = "sp")
#save the data from the shapefile into a tibble
data.vis<- as_tibble(data.vis.sp@data)
#remove all the lines with NA's. The function complete.cases removes all the lines that have NA's in them somewhere
data.vis<- data.vis[complete.cases(data.vis),]

Let’s view our data:

as.tibble(data.vis)

## # A tibble: 188 x 11
##    FIPS_CNTRY CNTRY_NAME POP_CNTRY SQKM_CNTRY LANDLOCKED ISLAND Continent
##    <fct>      <fct>      <fct>          <dbl> <fct>      <fct>  <fct>    
##  1 AC         Antigua a… 65212           462. N          Y      North Am…
##  2 AF         Afghanist… 17250390     641869. Y          N      Asia     
##  3 AG         Algeria    27459230    2320972  N          N      Africa   
##  4 AJ         Azerbaijan 5487866       85808. Y          N      Asia     
##  5 AL         Albania    3416945       28754. N          N      Europe   
##  6 AM         Armenia    3377228       29872. Y          N      Europe   
##  7 AN         Andorra    55335           452. Y          N      Europe   
##  8 AO         Angola     11527260    1252421  N          N      Africa   
##  9 AR         Argentina  33796870    2781013  N          N      South Am…
## 10 AS         Australia  17827520    7706142  N          N      Oceania  
## # ... with 178 more rows, and 4 more variables: spirits <dbl>, beer <dbl>,
## #   wine <dbl>, total <dbl>
…
